<?xml version="1.0" encoding="utf-8"?>
<!-- Generator: Adobe Illustrator 22.0.0, SVG Export Plug-In . SVG Version: 6.00 Build 0)  -->
<svg version="1.1" id="Capa_1" xmlns="http://www.w3.org/2000/svg" xmlns:xlink="http://www.w3.org/1999/xlink" x="0px" y="0px"
	 viewBox="0 0 851 315" style="enable-background:new 0 0 851 315;" xml:space="preserve">
<style type="text/css">
	.st0{fill:#FFFFFF;}
	.st1{fill:#0075BC;}
</style>
<rect y="0.2" class="st0" width="851" height="314.8"/>
<polygon class="st1" points="166.2,74 166.2,246.9 199.8,225.5 432.8,225.5 432.8,74 "/>
<g>
	<path class="st0" d="M183,122v-14.6h-2.5V105h8v2.4H186V122h6v-6.6h2.7v9h-14.3V122H183z"/>
	<path class="st0" d="M209.3,122.1v2.4h-4.6v-1.6c-1.3,1.2-2.7,1.9-4.3,1.9c-1.2,0-2.3-0.4-3.2-1.2c-0.9-0.8-1.4-1.8-1.4-3.1
		c0-1.3,0.5-2.3,1.4-3.1c1-0.8,2.1-1.2,3.5-1.2c1.3,0,2.5,0.4,3.7,1.1v-1.3c0-0.7-0.1-1.2-0.2-1.6c-0.1-0.4-0.4-0.7-0.9-1
		c-0.5-0.3-1.1-0.4-1.9-0.4c-1.3,0-2.3,0.5-2.9,1.6l-2.5-0.7c1.1-2.1,3.1-3.2,5.8-3.2c1,0,1.9,0.1,2.6,0.4c0.7,0.3,1.3,0.6,1.7,1.1
		c0.4,0.4,0.6,0.9,0.7,1.4c0.1,0.5,0.2,1.3,0.2,2.4v6.3H209.3z M204.4,119.4c-1.1-0.9-2.3-1.3-3.5-1.3c-0.7,0-1.4,0.2-1.8,0.6
		c-0.5,0.4-0.7,1-0.7,1.7c0,0.6,0.2,1.2,0.6,1.6c0.4,0.4,1,0.6,1.8,0.6c1.3,0,2.5-0.5,3.6-1.6V119.4z"/>
	<path class="st0" d="M217.1,114.1v-3.1h6.4v10.4h2v3.1h-8.4v-3.1h2.1v-7.3H217.1z M219,107.1c0-0.7,0.2-1.2,0.7-1.7
		c0.5-0.5,1-0.7,1.7-0.7c0.7,0,1.2,0.2,1.7,0.7c0.5,0.5,0.7,1,0.7,1.7c0,0.7-0.2,1.2-0.7,1.7c-0.5,0.5-1,0.7-1.7,0.7
		c-0.6,0-1.2-0.2-1.7-0.7C219.2,108.2,219,107.7,219,107.1z"/>
	<path class="st0" d="M226.5,114.1v-3.1h6.4v1.3c1.3-1,2.6-1.5,4-1.5c2.7,0,4.1,1.7,4.1,5.2v5.4h2v3.1h-6.4v-8.2
		c0-0.7-0.1-1.2-0.3-1.5c-0.2-0.3-0.5-0.4-1-0.4c-0.8,0-1.6,0.3-2.5,0.9v6.1h2.1v3.1h-8.5v-3.1h2.1v-7.3H226.5z"/>
	<path class="st0" d="M252.2,121.3v3.1h-8.4v-3.1h2v-7.3h-1.8v-3.1h1.8v-1.2c0-1.4,0.4-2.6,1.3-3.6c0.9-1,2.2-1.4,3.9-1.4
		c2.1,0,3.6,0.6,4.5,1.9l-3.1,2.4c-0.3-1-0.7-1.5-1.2-1.5c-0.7,0-1.1,0.6-1.1,1.9v1.5h2.1v3.1h-2.1v7.3H252.2z"/>
	<path class="st0" d="M260.8,124.8c-2,0-3.7-0.6-5.1-1.9c-1.4-1.3-2.1-3-2.1-5.2c0-2.2,0.7-3.9,2.1-5.2c1.4-1.3,3.1-1.9,5.1-1.9
		c2,0,3.7,0.6,5.1,1.9c1.4,1.3,2.1,3,2.1,5.2c0,2.2-0.7,3.9-2,5.2C264.5,124.1,262.8,124.8,260.8,124.8z M260.7,121.4
		c0.8,0,1.5-0.3,2-0.9c0.5-0.6,0.7-1.6,0.7-2.9c0-1.2-0.2-2.1-0.7-2.7c-0.5-0.6-1.1-1-2-1c-1.8,0-2.7,1.3-2.7,3.9
		c0,1.1,0.2,1.9,0.7,2.6C259.2,121.1,259.8,121.4,260.7,121.4z"/>
	<path class="st0" d="M278.8,121.3v3.1h-9.5v-3.1h2.5v-7.3h-2.3v-3.1h6.3v3.4c0.2-1,0.8-1.8,1.7-2.6c0.9-0.7,1.9-1.1,3.1-1.1
		c0.2,0,0.4,0,0.7,0v4.1c-1.1,0-2,0.1-2.7,0.4c-0.7,0.2-1.3,0.8-1.7,1.6c-0.4,0.8-0.7,1.8-0.7,2.9v1.7H278.8z"/>
	<path class="st0" d="M283.1,114.1v-3.1h6.6v1.1c1.5-0.9,2.9-1.3,4.4-1.3c1.7,0,3.1,0.6,4.1,1.8c1.7-1.2,3.6-1.8,5.5-1.8
		c1.1,0,2,0.2,2.7,0.6c0.7,0.4,1.2,1,1.4,1.7c0.3,0.7,0.4,1.8,0.4,3.2v5.2h2.2v3.1h-6.6v-7.9c0-1.4-0.6-2.1-1.8-2.1
		c-1,0-2,0.3-3.1,0.9v6h2.2v3.1h-6.6v-7.8c0-1.5-0.6-2.3-1.8-2.3c-0.9,0-2,0.3-3.1,0.9v6h2.2v3.1h-8.8v-3.1h2.2v-7.3H283.1z"/>
	<path class="st0" d="M326.4,121.3v3.1h-6.5v-1.1c-1.2,0.8-2.4,1.3-3.7,1.3c-1.3,0-2.5-0.4-3.5-1.1s-1.5-1.8-1.5-3.1
		c0-1.3,0.5-2.4,1.5-3.3c1-0.9,2.3-1.3,4-1.3c0.9,0,1.9,0.2,3.1,0.7v-0.8c0-0.7-0.2-1.3-0.7-1.7c-0.5-0.4-1.1-0.7-1.9-0.7
		c-1,0-1.8,0.4-2.5,1.1l-3.5-0.6c1-2.1,3.2-3.2,6.6-3.2c1.3,0,2.4,0.1,3.2,0.4c0.9,0.3,1.5,0.7,1.9,1.1c0.4,0.5,0.7,1,0.9,1.5
		c0.2,0.6,0.3,1.5,0.3,2.7v4.9H326.4z M319.9,119.5c-1-0.7-1.9-1-2.5-1c-0.5,0-0.9,0.1-1.3,0.4c-0.4,0.3-0.6,0.7-0.6,1.3
		c0,0.5,0.2,0.9,0.5,1.3c0.3,0.4,0.7,0.5,1.3,0.5c0.8,0,1.7-0.5,2.7-1.4V119.5z"/>
	<path class="st0" d="M341.3,110.9v5.5h-3.1c-0.7-1.5-1.8-2.3-3.3-2.3c-1,0-1.7,0.3-2.3,0.9c-0.6,0.6-0.8,1.5-0.8,2.5
		c0,1.3,0.3,2.2,0.9,2.8c0.6,0.6,1.3,0.9,2.2,0.9c0.7,0,1.3-0.2,2-0.6c0.6-0.4,1.1-0.9,1.5-1.6l3.4,1.5c-1.2,2.7-3.4,4.1-6.6,4.1
		c-2.4,0-4.2-0.6-5.6-1.9c-1.4-1.3-2.1-3-2.1-5.2c0-2.2,0.7-3.9,2.1-5.1c1.4-1.2,3-1.9,4.8-1.9c1.5,0,2.8,0.4,4.1,1.3v-1.1H341.3z"
		/>
	<path class="st0" d="M343.1,114.1v-3.1h6.4v10.4h2v3.1h-8.4v-3.1h2.1v-7.3H343.1z M345,107.1c0-0.7,0.2-1.2,0.7-1.7
		c0.5-0.5,1-0.7,1.7-0.7c0.7,0,1.2,0.2,1.7,0.7c0.5,0.5,0.7,1,0.7,1.7c0,0.7-0.2,1.2-0.7,1.7c-0.5,0.5-1,0.7-1.7,0.7
		c-0.6,0-1.2-0.2-1.7-0.7C345.3,108.2,345,107.7,345,107.1z"/>
	<path class="st0" d="M359.8,124.8c-2,0-3.7-0.6-5.1-1.9c-1.4-1.3-2.1-3-2.1-5.2c0-2.2,0.7-3.9,2.1-5.2c1.4-1.3,3.1-1.9,5.1-1.9
		c2,0,3.7,0.6,5.1,1.9c1.4,1.3,2.1,3,2.1,5.2c0,2.2-0.7,3.9-2,5.2C363.5,124.1,361.8,124.8,359.8,124.8z M359.8,121.4
		c0.8,0,1.5-0.3,2-0.9c0.5-0.6,0.7-1.6,0.7-2.9c0-1.2-0.2-2.1-0.7-2.7c-0.5-0.6-1.1-1-2-1c-1.8,0-2.7,1.3-2.7,3.9
		c0,1.1,0.2,1.9,0.7,2.6C358.2,121.1,358.9,121.4,359.8,121.4z M357.6,109.2l2.1-4.4h5.3l-5.1,4.4H357.6z"/>
	<path class="st0" d="M368.5,114.1v-3.1h6.4v1.3c1.3-1,2.6-1.5,4-1.5c2.7,0,4.1,1.7,4.1,5.2v5.4h2v3.1h-6.4v-8.2
		c0-0.7-0.1-1.2-0.3-1.5c-0.2-0.3-0.5-0.4-1-0.4c-0.8,0-1.6,0.3-2.5,0.9v6.1h2.1v3.1h-8.5v-3.1h2.1v-7.3H368.5z"/>
	<path class="st0" d="M195.1,165.7h2.5v2.4h-7.8v-2.4h2.6v-5.4c-1.3,1.4-2.9,2.1-4.8,2.1c-1.7,0-3.2-0.6-4.6-1.9c-1.4-1.3-2-3-2-5.2
		c0-2.1,0.6-3.8,1.9-5.1c1.3-1.3,2.8-1.9,4.7-1.9c1.9,0,3.5,0.8,4.8,2.3v-2.1h4.9v2.4h-2.3V165.7z M192.5,155.4
		c0-1.5-0.4-2.6-1.3-3.5c-0.9-0.9-1.9-1.3-3.1-1.3c-1.1,0-2.1,0.4-3,1.2c-0.8,0.8-1.3,2-1.3,3.4c0,1.3,0.4,2.4,1.1,3.3
		c0.8,0.9,1.8,1.4,3.2,1.4c1.4,0,2.5-0.5,3.2-1.4C192.2,157.6,192.5,156.6,192.5,155.4z"/>
	<path class="st0" d="M213,159.6v2.4h-5v-1.6c-1.6,1.2-3,1.8-4.5,1.8c-0.9,0-1.7-0.2-2.2-0.6c-0.6-0.4-1-0.9-1.2-1.5
		c-0.2-0.6-0.3-1.6-0.3-3v-6.2h-1.9v-2.4h4.6v8.2c0,1,0,1.7,0.1,2c0.1,0.3,0.2,0.6,0.5,0.9c0.3,0.2,0.6,0.3,1,0.3
		c1.2,0,2.5-0.6,3.9-1.8v-7.3h-2.4v-2.4h5v11.2H213z"/>
	<path class="st0" d="M228.2,155.9h-11.4c0.2,1.2,0.7,2.3,1.5,3c0.8,0.8,1.9,1.2,3.1,1.2c1.9,0,3.3-0.7,4.4-2.2l2.3,1
		c-0.8,1.2-1.8,2.1-3,2.6c-1.2,0.6-2.5,0.9-3.8,0.9c-2.1,0-3.8-0.6-5.3-1.9c-1.5-1.3-2.2-3-2.2-5.2c0-2.1,0.7-3.8,2.1-5.1
		c1.4-1.3,3.1-2,4.9-2c1.8,0,3.5,0.7,4.9,2C227.3,151.4,228.1,153.3,228.2,155.9z M225.4,154c-0.2-1-0.7-1.8-1.5-2.6
		c-0.8-0.8-1.8-1.2-2.9-1.2c-1.1,0-2,0.3-2.7,1c-0.8,0.7-1.2,1.6-1.4,2.7H225.4z"/>
	<path class="st0" d="M241.2,148.5v1.6c1.7-1.2,3.3-1.8,4.7-1.8c0.9,0,1.6,0.2,2.2,0.6c0.6,0.4,0.9,0.9,1.1,1.5
		c0.2,0.6,0.3,1.5,0.3,2.6v6.6h2.3v2.4h-4.9v-8.8c0-1-0.2-1.7-0.5-2c-0.3-0.3-0.7-0.5-1.1-0.5c-1.2,0-2.5,0.6-4,1.7v7.2h2.3v2.4
		h-7.4v-2.4h2.4v-8.8h-2.4v-2.4H241.2z"/>
	<path class="st0" d="M266.7,155.9h-11.4c0.2,1.2,0.7,2.3,1.5,3c0.8,0.8,1.9,1.2,3.1,1.2c1.9,0,3.3-0.7,4.4-2.2l2.3,1
		c-0.8,1.2-1.8,2.1-3,2.6c-1.2,0.6-2.5,0.9-3.8,0.9c-2.1,0-3.8-0.6-5.3-1.9c-1.5-1.3-2.2-3-2.2-5.2c0-2.1,0.7-3.8,2.1-5.1
		c1.4-1.3,3.1-2,4.9-2c1.8,0,3.5,0.7,4.9,2C265.8,151.4,266.6,153.3,266.7,155.9z M263.9,154c-0.2-1-0.7-1.8-1.5-2.6
		c-0.8-0.8-1.8-1.2-2.9-1.2c-1.1,0-2,0.3-2.7,1c-0.8,0.7-1.2,1.6-1.4,2.7H263.9z"/>
	<path class="st0" d="M281.1,148.5v5.1h-2.4c-0.1-1-0.5-1.7-1.2-2.2c-0.7-0.5-1.5-0.8-2.4-0.8c-1.2,0-2.2,0.4-2.9,1.3
		c-0.7,0.8-1.1,1.9-1.1,3.3c0,1.3,0.4,2.4,1.1,3.4c0.7,1,1.7,1.5,3.1,1.5c1.9,0,3.2-0.9,4.1-2.7l2.2,1c-1.2,2.7-3.3,4-6.4,4
		c-2.1,0-3.8-0.7-5.1-2.2c-1.2-1.5-1.8-3.1-1.8-5.1c0-2,0.7-3.7,2-5.1c1.3-1.3,2.9-2,4.6-2c1.5,0,2.8,0.4,3.8,1.3v-1H281.1z"/>
	<path class="st0" d="M297,155.9h-11.4c0.2,1.2,0.7,2.3,1.5,3c0.8,0.8,1.9,1.2,3.1,1.2c1.9,0,3.3-0.7,4.4-2.2l2.3,1
		c-0.8,1.2-1.8,2.1-3,2.6c-1.2,0.6-2.5,0.9-3.8,0.9c-2.1,0-3.8-0.6-5.3-1.9c-1.5-1.3-2.2-3-2.2-5.2c0-2.1,0.7-3.8,2.1-5.1
		c1.4-1.3,3.1-2,4.9-2c1.8,0,3.5,0.7,4.9,2C296.2,151.4,297,153.3,297,155.9z M294.3,154c-0.2-1-0.7-1.8-1.5-2.6
		c-0.8-0.8-1.8-1.2-2.9-1.2c-1.1,0-2,0.3-2.7,1c-0.8,0.7-1.2,1.6-1.4,2.7H294.3z"/>
	<path class="st0" d="M298.8,162v-4.6h2.4v0.4c0.1,0.6,0.4,1.2,1,1.6c0.6,0.4,1.3,0.6,2.1,0.6c0.9,0,1.5-0.1,2.1-0.4
		c0.5-0.3,0.8-0.7,0.8-1.2c0-0.5-0.2-0.9-0.6-1.1c-0.4-0.2-1.3-0.5-2.5-0.7c-1.9-0.3-3.2-0.8-4-1.5c-0.8-0.7-1.2-1.6-1.2-2.7
		c0-1.1,0.4-2.1,1.3-2.8c0.9-0.8,2-1.1,3.4-1.1c1.3,0,2.4,0.3,3.3,0.8v-0.6h2.4v4.5h-2.4v-0.8c-0.7-1.1-1.8-1.7-3.1-1.7
		c-0.7,0-1.3,0.2-1.7,0.5c-0.5,0.3-0.7,0.7-0.7,1.2c0,0.5,0.2,0.9,0.6,1.1c0.4,0.2,1.3,0.4,2.7,0.6c1.3,0.2,2.3,0.4,3,0.7
		s1.2,0.7,1.7,1.4c0.4,0.6,0.7,1.4,0.7,2.2c0,1.3-0.5,2.3-1.4,3c-1,0.7-2.2,1.1-3.8,1.1c-1.4,0-2.6-0.3-3.5-1v0.8H298.8z"/>
	<path class="st0" d="M313.2,159.6v-8.8h-2.1v-2.4h4.8v11.2h2.1v2.4h-6.8v-2.4H313.2z M312.9,143.9c0-0.4,0.2-0.8,0.5-1.1
		s0.7-0.5,1.2-0.5c0.4,0,0.8,0.2,1.1,0.5c0.3,0.3,0.5,0.7,0.5,1.1c0,0.4-0.2,0.8-0.5,1.1c-0.3,0.3-0.7,0.5-1.1,0.5
		c-0.4,0-0.8-0.2-1.1-0.5C313,144.7,312.9,144.3,312.9,143.9z"/>
	<path class="st0" d="M318.9,150.8v-2.4h1.8v-2.1l2.7-2.4v4.5h2.5v2.4h-2.5v6.6c0,1.1,0.1,1.7,0.2,1.9c0.1,0.2,0.4,0.4,0.9,0.4
		c0.5,0,1-0.1,1.5-0.3v2.4c-0.7,0.2-1.4,0.4-2,0.4c-0.8,0-1.5-0.2-2-0.5s-0.8-0.8-1-1.3c-0.1-0.5-0.2-1.5-0.2-2.8v-6.7H318.9z"/>
	<path class="st0" d="M341.1,159.6v2.4h-4.6v-1.6c-1.3,1.2-2.7,1.9-4.3,1.9c-1.2,0-2.3-0.4-3.2-1.2c-0.9-0.8-1.4-1.8-1.4-3.1
		c0-1.3,0.5-2.3,1.4-3.1c1-0.8,2.1-1.2,3.5-1.2c1.3,0,2.5,0.4,3.7,1.1v-1.3c0-0.7-0.1-1.2-0.2-1.6c-0.1-0.4-0.4-0.7-0.9-1
		c-0.5-0.3-1.1-0.4-1.9-0.4c-1.3,0-2.3,0.5-2.9,1.6l-2.5-0.7c1.1-2.1,3.1-3.2,5.8-3.2c1,0,1.9,0.1,2.6,0.4c0.7,0.3,1.3,0.6,1.7,1.1
		c0.4,0.4,0.6,0.9,0.7,1.4c0.1,0.5,0.2,1.3,0.2,2.4v6.3H341.1z M336.2,157c-1.1-0.9-2.3-1.3-3.5-1.3c-0.7,0-1.4,0.2-1.8,0.6
		c-0.5,0.4-0.7,1-0.7,1.7c0,0.6,0.2,1.2,0.6,1.6c0.4,0.4,1,0.6,1.8,0.6c1.3,0,2.5-0.5,3.6-1.6V157z"/>
	<path class="st0" d="M342.1,162v-4.6h2.4v0.4c0.1,0.6,0.4,1.2,1,1.6c0.6,0.4,1.3,0.6,2.1,0.6c0.9,0,1.5-0.1,2.1-0.4
		c0.5-0.3,0.8-0.7,0.8-1.2c0-0.5-0.2-0.9-0.6-1.1c-0.4-0.2-1.3-0.5-2.5-0.7c-1.9-0.3-3.2-0.8-4-1.5c-0.8-0.7-1.2-1.6-1.2-2.7
		c0-1.1,0.4-2.1,1.3-2.8c0.9-0.8,2-1.1,3.4-1.1c1.3,0,2.4,0.3,3.3,0.8v-0.6h2.4v4.5h-2.4v-0.8c-0.7-1.1-1.8-1.7-3.1-1.7
		c-0.7,0-1.3,0.2-1.7,0.5c-0.5,0.3-0.7,0.7-0.7,1.2c0,0.5,0.2,0.9,0.6,1.1c0.4,0.2,1.3,0.4,2.7,0.6c1.3,0.2,2.3,0.4,3,0.7
		s1.2,0.7,1.7,1.4c0.4,0.6,0.7,1.4,0.7,2.2c0,1.3-0.5,2.3-1.4,3c-1,0.7-2.2,1.1-3.8,1.1c-1.4,0-2.6-0.3-3.5-1v0.8H342.1z"/>
	<path class="st0" d="M182.7,203.2v-14.9h-2.3V186h4.9v2.1c1.3-1.6,2.9-2.3,4.8-2.3c1.9,0,3.5,0.7,4.7,2c1.2,1.3,1.9,3,1.9,5.1
		c0,2.2-0.7,3.9-2,5.2c-1.4,1.3-2.9,1.9-4.6,1.9c-1.8,0-3.4-0.7-4.8-2.1v5.4h2.6v2.4h-7.8v-2.4H182.7z M185.3,192.9
		c0,0.7,0.2,1.5,0.5,2.1c0.3,0.7,0.8,1.3,1.5,1.7c0.7,0.5,1.5,0.7,2.4,0.7c1.3,0,2.3-0.4,3.1-1.3c0.8-0.8,1.2-2,1.2-3.5
		c0-1.4-0.4-2.6-1.3-3.4c-0.9-0.8-1.8-1.2-2.9-1.2c-1.2,0-2.2,0.4-3.1,1.3C185.8,190.3,185.3,191.5,185.3,192.9z"/>
	<path class="st0" d="M212.3,197.1v2.4h-4.6v-1.6c-1.3,1.2-2.7,1.9-4.3,1.9c-1.2,0-2.3-0.4-3.2-1.2c-0.9-0.8-1.4-1.8-1.4-3.1
		c0-1.3,0.5-2.3,1.4-3.1c1-0.8,2.1-1.2,3.5-1.2c1.3,0,2.5,0.4,3.7,1.1v-1.3c0-0.7-0.1-1.2-0.2-1.6c-0.1-0.4-0.4-0.7-0.9-1
		c-0.5-0.3-1.1-0.4-1.9-0.4c-1.3,0-2.3,0.5-2.9,1.6l-2.5-0.7c1.1-2.1,3.1-3.2,5.8-3.2c1,0,1.9,0.1,2.6,0.4c0.7,0.3,1.3,0.6,1.7,1.1
		c0.4,0.4,0.6,0.9,0.7,1.4c0.1,0.5,0.2,1.3,0.2,2.4v6.3H212.3z M207.4,194.5c-1.1-0.9-2.3-1.3-3.5-1.3c-0.7,0-1.4,0.2-1.8,0.6
		c-0.5,0.4-0.7,1-0.7,1.7c0,0.6,0.2,1.2,0.6,1.6c0.4,0.4,1,0.6,1.8,0.6c1.3,0,2.5-0.5,3.6-1.6V194.5z"/>
	<path class="st0" d="M215.5,197.1v-8.8h-2.7V186h4.8v3c0.3-0.8,0.7-1.4,1.2-2c0.5-0.5,1.1-0.9,1.7-1c0.6-0.2,1.4-0.3,2.4-0.3h0.7
		v2.7h-0.5c-1.4,0-2.4,0.1-3,0.4c-0.7,0.3-1.2,0.8-1.5,1.5c-0.3,0.7-0.5,2-0.5,3.8v3h2.9v2.4h-8.3v-2.4H215.5z"/>
	<path class="st0" d="M237.7,197.1v2.4h-4.6v-1.6c-1.3,1.2-2.7,1.9-4.3,1.9c-1.2,0-2.3-0.4-3.2-1.2c-0.9-0.8-1.4-1.8-1.4-3.1
		c0-1.3,0.5-2.3,1.4-3.1c1-0.8,2.1-1.2,3.5-1.2c1.3,0,2.5,0.4,3.7,1.1v-1.3c0-0.7-0.1-1.2-0.2-1.6c-0.1-0.4-0.4-0.7-0.9-1
		c-0.5-0.3-1.1-0.4-1.9-0.4c-1.3,0-2.3,0.5-2.9,1.6l-2.5-0.7c1.1-2.1,3.1-3.2,5.8-3.2c1,0,1.9,0.1,2.6,0.4c0.7,0.3,1.3,0.6,1.7,1.1
		c0.4,0.4,0.6,0.9,0.7,1.4c0.1,0.5,0.2,1.3,0.2,2.4v6.3H237.7z M232.8,194.5c-1.1-0.9-2.3-1.3-3.5-1.3c-0.7,0-1.4,0.2-1.8,0.6
		c-0.5,0.4-0.7,1-0.7,1.7c0,0.6,0.2,1.2,0.6,1.6c0.4,0.4,1,0.6,1.8,0.6c1.3,0,2.5-0.5,3.6-1.6V194.5z"/>
	<path class="st0" d="M250.7,199.7l-4.6-10.6h-2V186h8.2v3.1h-1.7l2.1,6.2l2.5-6.2h-1.8V186h7.2v3.1h-1.9l-4.4,10.6H250.7z"/>
	<path class="st0" d="M261.4,189.1V186h6.4v10.4h2v3.1h-8.4v-3.1h2.1v-7.3H261.4z M263.3,182.1c0-0.7,0.2-1.2,0.7-1.7
		c0.5-0.5,1-0.7,1.7-0.7c0.7,0,1.2,0.2,1.7,0.7c0.5,0.5,0.7,1,0.7,1.7c0,0.7-0.2,1.2-0.7,1.7c-0.5,0.5-1,0.7-1.7,0.7
		c-0.6,0-1.2-0.2-1.7-0.7C263.5,183.3,263.3,182.7,263.3,182.1z"/>
	<path class="st0" d="M276.3,199.7l-4.6-10.6h-2V186h8.2v3.1h-1.7l2.1,6.2l2.5-6.2h-1.8V186h7.2v3.1h-1.9l-4.4,10.6H276.3z"/>
	<path class="st0" d="M287,189.1V186h6.4v10.4h2v3.1H287v-3.1h2.1v-7.3H287z M288.9,182.1c0-0.7,0.2-1.2,0.7-1.7
		c0.5-0.5,1-0.7,1.7-0.7c0.7,0,1.2,0.2,1.7,0.7c0.5,0.5,0.7,1,0.7,1.7c0,0.7-0.2,1.2-0.7,1.7c-0.5,0.5-1,0.7-1.7,0.7
		c-0.6,0-1.2-0.2-1.7-0.7C289.1,183.3,288.9,182.7,288.9,182.1z"/>
	<path class="st0" d="M305.7,196.4v3.1h-9.5v-3.1h2.5v-7.3h-2.3V186h6.3v3.4c0.2-1,0.8-1.8,1.7-2.6c0.9-0.7,1.9-1.1,3.1-1.1
		c0.2,0,0.4,0,0.7,0v4.1c-1.1,0-2,0.1-2.7,0.4c-0.7,0.2-1.3,0.8-1.7,1.6c-0.4,0.8-0.7,1.8-0.7,2.9v1.7H305.7z"/>
	<path class="st0" d="M326.3,195.4l3.4,1.1c-1.4,2.2-3.6,3.3-6.6,3.3c-2.4,0-4.2-0.6-5.6-1.9c-1.3-1.3-2-2.9-2-5
		c0-2.1,0.7-3.8,2.1-5.2c1.4-1.4,3.1-2.1,5.3-2.1c1.5,0,2.9,0.4,4,1.2c1.1,0.8,1.9,1.8,2.3,2.9c0.4,1.2,0.7,2.5,0.7,3.9h-10.1
		c0.1,1.2,0.5,2.1,1.2,2.6c0.7,0.5,1.5,0.8,2.3,0.8C324.2,197,325.3,196.5,326.3,195.4z M325.5,191.2c-0.1-0.8-0.4-1.4-0.9-1.9
		c-0.5-0.5-1.2-0.8-2-0.8c-1.6,0-2.5,0.9-2.8,2.7H325.5z"/>
	<path class="st0" d="M331.4,189.1V186h6.4v1.3c1.3-1,2.6-1.5,4-1.5c2.7,0,4.1,1.7,4.1,5.2v5.4h2v3.1h-6.4v-8.2
		c0-0.7-0.1-1.2-0.3-1.5c-0.2-0.3-0.5-0.4-1-0.4c-0.8,0-1.6,0.3-2.5,0.9v6.1h2.1v3.1h-8.5v-3.1h2.1v-7.3H331.4z"/>
	<path class="st0" d="M365.5,196.2v3.3h-10.2v-3.3h2.5v-12.9h-2.5v-3.3h10.2c2.4,0,4.2,0.6,5.5,1.7c1.3,1.1,2,2.6,2,4.5
		c0,1.1-0.2,2.1-0.7,2.9c-0.5,0.9-1,1.6-1.8,2c-0.7,0.5-1.5,0.8-2.4,1c-0.9,0.2-2.1,0.3-3.4,0.3h-1.9v3.8H365.5z M362.8,189.2h0.8
		c1.7,0,2.8-0.3,3.3-0.8c0.5-0.6,0.7-1.3,0.7-2.1c0-0.7-0.2-1.3-0.5-1.8c-0.3-0.5-0.7-0.8-1.2-0.9c-0.4-0.1-1.2-0.2-2.2-0.2h-1
		V189.2z"/>
	<path class="st0" d="M384.2,195.4l3.4,1.1c-1.4,2.2-3.6,3.3-6.6,3.3c-2.4,0-4.2-0.6-5.6-1.9c-1.3-1.3-2-2.9-2-5
		c0-2.1,0.7-3.8,2.1-5.2c1.4-1.4,3.1-2.1,5.3-2.1c1.5,0,2.9,0.4,4,1.2c1.1,0.8,1.9,1.8,2.3,2.9c0.4,1.2,0.7,2.5,0.7,3.9h-10.1
		c0.1,1.2,0.5,2.1,1.2,2.6c0.7,0.5,1.5,0.8,2.3,0.8C382.1,197,383.2,196.5,384.2,195.4z M383.4,191.2c-0.1-0.8-0.4-1.4-0.9-1.9
		c-0.5-0.5-1.2-0.8-2-0.8c-1.6,0-2.5,0.9-2.8,2.7H383.4z"/>
	<path class="st0" d="M398.5,196.4v3.1H389v-3.1h2.5v-7.3h-2.3V186h6.3v3.4c0.2-1,0.8-1.8,1.7-2.6c0.9-0.7,1.9-1.1,3.1-1.1
		c0.2,0,0.4,0,0.7,0v4.1c-1.1,0-2,0.1-2.7,0.4c-0.7,0.2-1.3,0.8-1.7,1.6c-0.4,0.8-0.7,1.8-0.7,2.9v1.7H398.5z"/>
	<path class="st0" d="M417.8,196.4v3.1h-6.5v-1.2c-1.3,0.9-2.6,1.3-3.9,1.3c-1.3,0-2.3-0.4-3.1-1.1c-0.7-0.7-1.1-1.8-1.1-3.1v-6.4
		h-2V186h6.3v8.4c0,0.7,0.1,1.1,0.3,1.4c0.2,0.2,0.6,0.4,1.1,0.4c0.7,0,1.5-0.3,2.4-1v-6.1h-2.1V186h6.4v10.4H417.8z M407.3,184.2
		l2.1-4.4h5.3l-5.1,4.4H407.3z"/>
	<path class="st0" d="M420.4,199.5v-3.4h3.4v3.4H420.4z"/>
</g>
<g>
	<g>
		<polygon class="st1" points="547.9,68.9 547.9,125.9 547.9,125.9 547.9,133.4 555.3,125.9 604.8,125.9 604.9,68.9 		"/>
		<g>
			<path class="st0" d="M561.6,80.3v34h29.5v-34H561.6z M588.3,111.5h-23.9V83.1h23.9V111.5z"/>
			<rect x="566.1" y="87.1" class="st0" width="19.9" height="2.8"/>
			<rect x="566.1" y="93.8" class="st0" width="19.9" height="2.8"/>
			<rect x="566.1" y="100.6" class="st0" width="19.9" height="2.8"/>
		</g>
	</g>
	<g>
		<polygon class="st1" points="764.5,99 764.6,156 764.6,156 764.6,163.4 757.2,156 707.6,156 707.6,99 		"/>
		<path class="st0" d="M758.4,121l-14-10.5l-30.2,11.4l1.1,2.8l1-0.4v18.1h1.5v0.1h19.2l0.1-10.1h5.7l0.1,10.1h12.6v-20.2l1.3,1
			L758.4,121z M752.3,139.6h-6.6l-0.1-10.1H734l-0.1,10.1h-14.7v-16.4l24.7-9.3l8.4,6.3V139.6z"/>
	</g>
	<g>
		<polygon class="st1" points="537.1,189.4 537.1,246.4 537.1,246.4 537.1,253.9 529.7,246.4 480.2,246.4 480.1,189.5 		"/>
		<path class="st0" d="M506.9,230.3L506.9,230.3L506.9,230.3l13-19.7l1.4-2.1l2.8-4.2l-7.2-4.7l-2.8,4.2l-1.4,2.1l-13,19.7l0,0
			l-1.9,7.3l3.2,2.1L506.9,230.3L506.9,230.3L506.9,230.3z M517.6,202.9l3.2,2.1l-1.5,2.2l-3.2-2.1L517.6,202.9z M517.9,209.2
			L506.3,227l-3.2-2.1l11.7-17.7L517.9,209.2z M500.9,232l-0.3-0.2l1.3-4.8l2.9,1.9L500.9,232z"/>
	</g>
	<g>
		<polygon class="st1" points="547.4,145.6 547.4,202.6 547.4,202.6 547.4,210.1 554.8,202.6 604.3,202.6 604.4,145.7 		"/>
		<g>
			<path class="st0" d="M567.3,173.9c-1.9,0-4,0.4-6.1,3.4l-0.3,0.4l0,0.5c0.1,2.9,0.1,6.7,0.1,6.8v1.5h3.6v5h9.4v-10.1
				C574.1,176.7,571.5,173.9,567.3,173.9z M571.3,188.6h-3.8v-5h-3.6c0-2.7,0-2.5-0.1-5.1c1.3-1.7,2.4-1.9,3.5-1.9
				c2.6,0,4,1.6,4,4.7V188.6z"/>
			<path class="st0" d="M567.8,172.7c2.8,0,5.1-2.2,5.1-5c0-2.8-2.2-5-5.1-5c-2.9,0-5.1,2.2-5.1,5
				C562.7,170.5,565,172.7,567.8,172.7z M567.8,165.5c1.3,0,2.3,1,2.3,2.2c0,1.2-1,2.2-2.3,2.2c-1.3,0-2.3-0.9-2.3-2.2
				C565.5,166.5,566.5,165.5,567.8,165.5z"/>
			<path class="st0" d="M585.5,167.7c-1.9,0-4,0.4-6.1,3.4l-0.3,0.4l0,0.5c0.1,2.9,0.1,12.8,0.1,12.9v1.5h3.6v5h9.4v-16.2
				C592.2,170.5,589.7,167.7,585.5,167.7z M589.5,188.6h-3.8v-5h-3.6c0-2.7,0-8.6-0.1-11.3c1.3-1.7,2.4-1.9,3.5-1.9
				c2.6,0,4,1.6,4,4.7V188.6z"/>
			<path class="st0" d="M586,166.4c2.8,0,5.1-2.2,5.1-5c0-2.8-2.2-5-5.1-5c-2.9,0-5.1,2.2-5.1,5C580.9,164.2,583.2,166.4,586,166.4z
				 M586,159.2c1.3,0,2.3,1,2.3,2.2c0,1.2-1,2.2-2.3,2.2c-1.3,0-2.3-0.9-2.3-2.2C583.7,160.1,584.7,159.2,586,159.2z"/>
		</g>
	</g>
	<g>
		<polygon class="st1" points="764.4,171.1 764.4,228 764.4,228 764.4,235.5 757,228 707.5,228.1 707.4,171.1 		"/>
		<g>
			<path class="st0" d="M725.3,199.8c0,5.7,4.6,10.3,10.3,10.3c5.7,0,10.3-4.6,10.3-10.3c0-5.7-4.6-10.3-10.3-10.3
				C729.9,189.5,725.3,194.2,725.3,199.8z M728.1,199.8c0-4.1,3.4-7.5,7.5-7.5c4.1,0,7.5,3.4,7.5,7.5c0,4.1-3.4,7.5-7.5,7.5
				C731.4,207.3,728.1,204,728.1,199.8z"/>
			<rect x="734.2" y="183.3" class="st0" width="2.8" height="4.7"/>
			
				<rect x="723.9" y="187.7" transform="matrix(0.7071 -0.7071 0.7071 0.7071 78.0336 568.5273)" class="st0" width="2.8" height="4.7"/>
			<rect x="718.7" y="199.1" class="st0" width="4.7" height="2.8"/>
			
				<rect x="723.1" y="209.4" transform="matrix(0.7071 -0.7071 0.7071 0.7071 63.4487 574.7262)" class="st0" width="4.7" height="2.8"/>
			<rect x="734.5" y="212.6" class="st0" width="2.8" height="4.7"/>
			
				<rect x="744.8" y="208.2" transform="matrix(0.7071 -0.7071 0.7071 0.7071 69.6431 589.3098)" class="st0" width="2.8" height="4.7"/>
			<rect x="748" y="198.8" class="st0" width="4.7" height="2.8"/>
			
				<rect x="743.6" y="188.5" transform="matrix(0.7071 -0.7071 0.7071 0.7071 84.2074 583.0764)" class="st0" width="4.7" height="2.8"/>
		</g>
	</g>
	<g>
		<polygon class="st1" points="627.8,132.9 627.7,189.9 627.7,189.9 627.7,197.4 635.1,189.9 684.7,190 684.7,133 		"/>
		<path class="st0" d="M661.8,157v-9.9H652v9.9h-9.9v9.8h9.9v9.9h9.8v-9.9h9.9V157H661.8z M669.2,164.4h-9.9v9.9h-4.9v-9.9h-9.9
			v-4.9h9.9v-9.9h4.9v9.9h9.9V164.4z"/>
	</g>
	<g>
		<polygon class="st1" points="684.3,59.9 684.3,116.8 684.3,116.8 684.3,124.3 676.9,116.9 627.4,116.9 627.3,59.9 		"/>
		<path class="st0" d="M640.3,74.5v30h30v-30h-7.5v-3.3h-2.7v3.3h-10.3v-3.3h-2.7v3.3H640.3z M643,84.1h24.5v17.7H643V84.1z
			 M643,77.2h4.1v1.5h2.7v-1.5h10.3v1.5h2.7v-1.5h4.8v4.1H643V77.2z"/>
	</g>
	<g>
		<polygon class="st1" points="479.9,115 479.8,172 479.8,172 479.8,179.5 487.2,172 536.8,172 536.8,115.1 		"/>
		<path class="st0" d="M489.8,137.7l6.3,22.6l30.5-8.5l-6.3-22.6L489.8,137.7z M516.7,132.6l-8.4,12.4l-14-6.2L516.7,132.6z
			 M497.7,157.5l-4.6-16.7l16.2,7.1l9.8-14.5l4.7,16.8L497.7,157.5z"/>
	</g>
	<g>
		<polygon class="st1" points="709.1,29.6 709.1,86.6 709.1,86.6 709.1,94.1 716.5,86.6 766.1,86.7 766.1,29.7 		"/>
		<g>
			<path class="st0" d="M748.1,53.6L748.1,53.6c-2.5-2.6-6-4.1-9.8-4.1c-4.1-0.1-7.9,1.4-10.6,4.1l-1.3,1.5l-0.1,0.1
				c-1.5,2-1.9,5-1.9,6.4v4.6v3.2V74h26.8v-4.7v-3.2v-4.7c0-1.4-0.5-4.8-2-6.5L748.1,53.6z M748.1,70.8h-20.4v-1.5h20.4V70.8z
				 M727.7,66.1v-4.6c0-1.3,0.4-3.3,1.2-4.5l1.1-1.3c2-2,5.1-3.2,8.2-3.1c3,0,5.7,1.1,7.5,3.1l1.1,1.3c0.6,0.7,1.2,3,1.2,4.4v4.7
				H727.7z"/>
			<rect x="736.3" y="39.2" class="st0" width="3.2" height="7.4"/>
			
				<rect x="746.3" y="45.5" transform="matrix(0.6161 -0.7877 0.7877 0.6161 250.8468 608.8995)" class="st0" width="7.4" height="3.2"/>
			
				<rect x="724" y="43.3" transform="matrix(0.7866 -0.6174 0.6174 0.7866 125.7795 458.0839)" class="st0" width="3.2" height="7.4"/>
		</g>
	</g>
	<polygon class="st1" points="604.9,218.6 604.9,275.6 604.9,275.6 604.9,283.1 597.5,275.6 547.9,275.7 547.9,218.7 	"/>
	<g>
		<path class="st0" d="M578,234.9h-3.2h-16.7v28.3h16.7h3.2h16.7v-28.3H578z M574.8,260h-13.5v-21.9h13.5V260z M591.5,260H578v-21.9
			h13.5V260z"/>
		<rect x="562.9" y="240.8" class="st0" width="10.4" height="3.2"/>
		<rect x="562.9" y="246.5" class="st0" width="10.4" height="3.2"/>
		<rect x="562.9" y="252.3" class="st0" width="10.4" height="3.2"/>
		<rect x="579.6" y="240.8" class="st0" width="10.4" height="3.2"/>
		<rect x="579.6" y="246.5" class="st0" width="10.4" height="3.2"/>
		<rect x="579.6" y="252.3" class="st0" width="10.4" height="3.2"/>
	</g>
	<g>
		<polygon class="st1" points="627.8,207.3 627.7,264.3 627.7,264.3 627.7,271.8 635.1,264.3 684.7,264.4 684.7,207.4 		"/>
		<path class="st0" d="M672.7,226.2c-0.9-3.3-3.4-5.8-7.2-7.4l-1.1-0.5l-8.2,10.1l4.7,3.7c-0.3,1.1-1.1,3.3-3.5,6
			c-3.7,4.2-4.1,3.9-5.3,3.1c-2.2-1.5-2.8-1.9-2.9-1.9l-1.2-0.8l-7.8,9.7l4.3,3.9c1.9,1.7,4.2,2.6,6.6,2.6c1.2,0,2.4-0.2,3.5-0.6
			c4.7-1.8,9.1-5.6,13.1-11.3C672.3,236.3,674,230.7,672.7,226.2z M665.1,241c-4.5,6.5-8.8,9.1-11.6,10.2c-2.4,0.9-5,0.4-6.9-1.3
			l-2.1-1.9l4.1-5.1c0.4,0.3,0.9,0.6,1.6,1.1c3.7,2.5,6.1,0.3,9.5-3.7c4.2-4.8,4.4-8.3,4.4-8.7l0-0.8l-3.5-2.8l4.7-5.7
			c2.2,1.2,3.7,2.8,4.3,4.8C670.6,230.5,669,235.3,665.1,241z"/>
	</g>
</g>
</svg>
